…
## RPS12   1.170400e-94  0.6631844  1.00 1.000  1.465223e-90
```
```r
# find all markers distinguishing cluster 5 from clusters 0 and 3
cluster5.markers <- FindMarkers(pbmc, ident.1 = 5, ident.2 = c(0, 3))
```
```r
# find markers for every cluster compared to all remaining cells, report only the positive
# ones
pbmc.markers <- FindAllMarkers(pbmc, only.pos = TRUE)
pbmc.markers %>%
    group_by(cluster) %>%
    dplyr::filter(avg_log2FC > 1)

## # A tibble: 6,420 × 7
## # Groups:   cluster [12]
##       p_val avg_log2FC pct.1 pct.2 p_val_adj cluster gene   
##       <dbl>      <dbl> <dbl> <dbl>     <dbl> <fct>   <chr>  
## 1 1.50e-117       1.61 0.979 0.63  1.88e-113 0       LTB    
## 2 1.20e-111       1.43 0.938 0.445 1.51e-107 0       IL32   
## 3 3.22e- 95       1.62 0.759 0.3   4.03e- 91 0       IL7R   
## 4 8.71e- 79       1.10 0.895 0.416 1.09e- 74 0       CD3D   
## 5 1.83e- 73       2.46 0.421 0.101 2.29e- 69 0       AQP3   
## 6 2.69e- 72       1.05 0.929 0.593 3.37e- 68 0       LDHB   
## 7 1.50e- 70       3.89 0.219 0.018 1.88e- 66 0       TNFRSF4
## 8 7.16e- 59       1.71 0.596 0.237 8.97e- 55 0       CD2    
## 9 1.14e- 56       2.44 0.292 0.057 1.42e- 52 0       CD40LG 
## 10 1.90e- 55       1.05 0.779 0.395 2.38e- 51 0       CD3E   
## # ℹ 6,410 more rows
## # ℹ Use `print(n = ...)` to see more rows
```
…
